Regional regressions – BF-NEE Diagnostics
…
Code

df_model %>%
  count(continent, year) %>%
  arrange(continent, year)

# A tibble: 24 × 3
   continent  year     n
   <chr>     <dbl> <int>
 1 Africa     2000    41
 2 Africa     2005    41
 3 Africa     2010    41
 4 Africa     2015    41
 5 Asia       2000    42
 6 Asia       2005    42
 7 Asia       2010    41
 8 Asia       2015    41
 9 Europe     2000    32
10 Europe     2005    32
# ℹ 14 more rows
…
